%YAML 1.1
%TAG !u! tag:unity3d.com,2011:
--- !u!1045 &1
EditorBuildSettings:
  m_ObjectHideFlags: 0
  serializedVersion: 2
  m_Scenes:
  - enabled: 1
    path: Assets/MacroUtility/MacroUtilityUnity/Demo/Demo_Persistance.unity
    guid: cff0e1cb7143a724ebe42411e4f17c33
  m_configObjects: {}
